http:www.downloadhelper.net:80:.:	0	18235	http:www.downloadhelper.net:80:www.downloadhelper.net:443::n:1575517073:h2:n:1575509255:n::http://www.downloadhelper.net|n:
http:add0n.com:80:.:	0	18235	http:add0n.com:80:add0n.com:443::n:1575516740:h2:n:1575509255:n::http://add0n.com|n:
http:downloadhelper.net:80:.:	0	18235	http:downloadhelper.net:80:downloadhelper.net:443::n:1575517066:h2:n:1575509255:n::https://addons.mozilla.org|n:
