1575514391524	Sync.LogManager	DEBUG	Flushing file log
1575514391576	Sync.LogManager	DEBUG	Log cleanup threshold time: 1574650391576
1575514391596	Sync.LogManager	DEBUG	Done deleting files.
1575515209801	Sync.SyncScheduler	DEBUG	Network link status changed to "down". Offline?: false
1575515209801	Sync.SyncScheduler	DEBUG	Clearing sync triggers and the global score.
1575515209816	Sync.SyncScheduler	DEBUG	Clearing sync triggers and the global score.
1575515215892	Sync.SyncScheduler	DEBUG	Network link status changed to "up". Offline?: false
1575515216024	Sync.SyncScheduler	DEBUG	Network link looks up. Syncing.
1575515216198	Sync.SyncScheduler	DEBUG	Clearing sync triggers and the global score.
1575515216414	Sync.Service	DEBUG	User-Agent: Firefox/70.0.1 (Linux x86_64) FxSync/1.72.0.20191031085722.desktop
1575515216420	Sync.Service	INFO	Starting sync at 2019-12-04 22:06:56 in browser session cQG3KV3qp2Yb
1575515216420	Sync.Service	DEBUG	In sync: should login.
1575515216421	Sync.Service	INFO	User logged in successfully - verifying login.
1575515216422	Sync.BrowserIDManager	DEBUG	unlockAndVerifyAuthState has no user
1575515216422	Sync.Status	DEBUG	Status.login: error.login.reason.no_username => error.login.reason.no_username
1575515216422	Sync.Status	DEBUG	Status.service: service.client_not_configured => service.client_not_configured
1575515216422	Sync.Service	DEBUG	Fetching unlocked auth state returned error.login.reason.no_username
1575515216427	Sync.ErrorHandler	ERROR	Sync encountered a login error
1575515216431	Sync.SyncScheduler	DEBUG	Clearing sync triggers and the global score.
1575515216431	Sync.SyncScheduler	DEBUG	Clearing sync triggers and the global score.
1575515216435	Sync.Service	DEBUG	Exception calling WrappedLock: Error: Login failed: error.login.reason.no_username(resource://services-sync/service.js:984:15) JS Stack trace: onNotify@service.js:984:15
1575515216436	Sync.Service	DEBUG	Not syncing: login returned false.
